<svg width="20" height="20" viewBox="0 0 20 20" fill="none" xmlns="http://www.w3.org/2000/svg">
<path fill-rule="evenodd" clip-rule="evenodd" d="M15 3.33329H5C4.53976 3.33329 4.16667 3.70639 4.16667 4.16663V15.8333C4.16667 16.2935 4.53976 16.6666 5 16.6666H15C15.4602 16.6666 15.8333 16.2935 15.8333 15.8333V4.16663C15.8333 3.70639 15.4602 3.33329 15 3.33329ZM5 1.66663C3.61929 1.66663 2.5 2.78591 2.5 4.16663V15.8333C2.5 17.214 3.61929 18.3333 5 18.3333H15C16.3807 18.3333 17.5 17.214 17.5 15.8333V4.16663C17.5 2.78591 16.3807 1.66663 15 1.66663H5Z" fill="#9D9BC9"/>
<path fill-rule="evenodd" clip-rule="evenodd" d="M2.5 6.66663C2.5 6.20639 2.8731 5.83329 3.33333 5.83329H16.6667C17.1269 5.83329 17.5 6.20639 17.5 6.66663C17.5 7.12686 17.1269 7.49996 16.6667 7.49996H3.33333C2.8731 7.49996 2.5 7.12686 2.5 6.66663Z" fill="#9D9BC9"/>
<path fill-rule="evenodd" clip-rule="evenodd" d="M7.5 5.83329C7.96024 5.83329 8.33333 6.20639 8.33333 6.66663V17.5C8.33333 17.9602 7.96024 18.3333 7.5 18.3333C7.03976 18.3333 6.66667 17.9602 6.66667 17.5L6.66667 6.66663C6.66667 6.20639 7.03976 5.83329 7.5 5.83329Z" fill="#9D9BC9"/>
</svg>
