<svg width="21" height="20" viewBox="0 0 21 20" fill="none" xmlns="http://www.w3.org/2000/svg">
<path d="M13.6522 16.5616C10.5168 16.6608 7.33939 16.6023 4.2081 16.3875C3.62319 16.3476 3.14913 15.8974 3.08093 15.317C2.73482 12.3742 2.73482 9.39004 3.08093 6.44732C3.14913 5.8669 3.62319 5.41668 4.20813 5.37676C4.48965 5.35752 4.75095 5.34076 5.00694 5.32546C5.14156 5.31741 5.24418 5.20177 5.23614 5.06715C5.22806 4.93253 5.11275 4.82975 4.97783 4.83799C4.72044 4.85335 4.45781 4.87022 4.17486 4.88956C3.35561 4.94546 2.69155 5.57663 2.59593 6.39031C2.24537 9.37089 2.24537 12.3934 2.59593 15.374C2.69159 16.1877 3.35561 16.8188 4.17479 16.8747C4.47376 16.8953 4.77325 16.914 5.07296 16.9317C5.07303 16.932 5.07306 16.9323 5.07313 16.9326L5.24245 17.6609C5.26866 17.7736 5.3691 17.8498 5.48008 17.8498C5.49838 17.8498 5.51697 17.8478 5.53559 17.8434C5.66696 17.8129 5.74867 17.6817 5.71814 17.5503L5.58088 16.9599C7.27544 17.0506 8.97939 17.0968 10.6795 17.0968C11.6778 17.0968 12.6749 17.0811 13.6677 17.0497C13.8024 17.0454 13.9082 16.9327 13.904 16.7979C13.8997 16.6631 13.7863 16.5563 13.6522 16.5616V16.5616Z" fill="#D79800"/>
<path d="M18.7367 6.39026C18.6411 5.57658 17.9771 4.9454 17.1579 4.8895C15.4507 4.77253 13.7329 4.70237 12.0145 4.67798L13.8427 2.55374C13.9307 2.45151 13.9192 2.29735 13.8169 2.20939C13.7147 2.12142 13.5605 2.13298 13.4726 2.23517L11.3763 4.67095C10.9266 4.66757 10.4771 4.66727 10.0277 4.67024L7.93208 2.23517C7.84408 2.13298 7.68993 2.12139 7.58773 2.20939C7.48551 2.29735 7.47395 2.45154 7.56195 2.55374L9.38876 4.67645C8.24098 4.69176 7.09528 4.7276 5.9547 4.78441C5.82001 4.79112 5.71626 4.90575 5.72296 5.04044C5.72967 5.17512 5.84453 5.27885 5.97899 5.27214C9.67506 5.088 13.4249 5.12316 17.1246 5.37671C17.7095 5.41663 18.1835 5.86685 18.2518 6.44727C18.5979 9.38999 18.5979 12.3742 18.2518 15.3169C18.1835 15.8973 17.7095 16.3475 17.1244 16.3875C16.2966 16.4444 15.453 16.491 14.6169 16.5261C14.4822 16.5317 14.3775 16.6456 14.3832 16.7803C14.3887 16.9116 14.4968 17.0143 14.627 17.0143C14.6304 17.0143 14.6339 17.0142 14.6374 17.0141C15.008 16.9985 15.3801 16.9803 15.7517 16.9603L15.6145 17.5502C15.584 17.6816 15.6657 17.8128 15.7971 17.8433C15.8157 17.8477 15.8343 17.8497 15.8526 17.8497C15.9636 17.8497 16.064 17.7735 16.0902 17.6608L16.2595 16.9325C16.2596 16.9322 16.2596 16.9319 16.2597 16.9315C16.5602 16.9138 16.8602 16.8951 17.1578 16.8747C17.977 16.8188 18.6411 16.1876 18.7367 15.3739C19.0873 12.3934 19.0873 9.37081 18.7367 6.39026V6.39026Z" fill="#D79800"/>
<path d="M3.8982 7.02542C3.56062 9.58449 3.56062 12.1795 3.8982 14.7386C3.96719 15.2615 4.39993 15.6674 4.92715 15.7038C6.83122 15.8353 8.74873 15.901 10.6662 15.901C12.5837 15.901 14.5012 15.8353 16.4053 15.7038C16.9325 15.6674 17.3653 15.2615 17.4342 14.7386C17.7718 12.1795 17.7718 9.58449 17.4342 7.02542C17.3653 6.5025 16.9325 6.09655 16.4053 6.06018C12.5971 5.79732 8.73529 5.79732 4.92712 6.06018C4.3999 6.09658 3.96716 6.50253 3.8982 7.02542V7.02542ZM10.6662 6.35137C12.5725 6.35137 14.4787 6.41671 16.3716 6.54736C16.6681 6.56784 16.9114 6.79573 16.9501 7.08929C17.2821 9.60595 17.2821 12.1581 16.9501 14.6748C16.9114 14.9683 16.6681 15.1962 16.3716 15.2167C12.5858 15.478 8.74662 15.478 4.96078 15.2167C4.66432 15.1962 4.42106 14.9683 4.38232 14.6747C4.05034 12.1581 4.05034 9.60595 4.38232 7.08929C4.42103 6.79573 4.66432 6.56784 4.96078 6.54736C6.85372 6.41671 8.75996 6.35137 10.6662 6.35137Z" fill="#D79800"/>
</svg>
