<svg width="20" height="20" viewBox="0 0 20 20" fill="none" xmlns="http://www.w3.org/2000/svg">
<path d="M17.4585 9.25107C17.3528 8.95045 17.0686 8.74948 16.7499 8.74995H7.99995C7.86188 8.74995 7.74996 8.86186 7.74996 8.99994V9.74993H7.24996V6.24997H7.49995C7.91414 6.24997 8.24994 5.91421 8.24994 5.49998C8.24994 5.08575 7.91417 4.74998 7.49995 4.74998H7.24996V3.99999H7.49995C7.63802 3.99999 7.74994 3.88808 7.74994 3.75V2.74999C7.74994 2.61191 7.63802 2.5 7.49995 2.5H2.74999C2.61191 2.5 2.5 2.61191 2.5 2.74999V3.74997C2.5 3.88805 2.61191 3.99996 2.74999 3.99996H2.99998V9.99992C2.99998 10.138 3.11189 10.2499 3.24997 10.2499H3.49995C3.57996 11.8599 4.42494 12.5299 5.17493 13.1224C6.12494 13.8724 7.01992 14.5799 6.49741 17.1999C6.46973 17.3351 6.55695 17.4672 6.69221 17.4949C6.71119 17.4988 6.73053 17.5005 6.74989 17.4999H14.7499C14.8879 17.4998 14.9998 17.3879 14.9998 17.2498C14.9998 17.205 14.9877 17.1609 14.9649 17.1224C14.2499 15.9324 14.2499 14.9649 14.2499 13.4999C15.7849 12.9999 16.8923 11.7174 16.9999 10.2074C17.3907 10.07 17.596 9.6418 17.4585 9.25107ZM7.49998 5.24996C7.63805 5.24996 7.74996 5.36188 7.74996 5.49995C7.74996 5.63803 7.63805 5.74994 7.49998 5.74994H7.24999V5.24996H7.49998ZM3.00001 3.49998V2.99998H7.24999V3.49998H3.00001V3.49998ZM3.49998 3.99999H6.74995V9.74996H3.49998V3.99999ZM7.04998 16.9999C7.49998 14.3199 6.48247 13.4999 5.49998 12.7299C4.76748 12.1574 4.08249 11.6149 3.99999 10.2499H7.49998C7.61248 11.7499 8.71497 12.9999 10.235 13.4999C10.235 14.9099 10.235 15.8624 9.58997 16.9999H7.04998ZM14.3274 16.9999H10.1724C10.7274 15.8949 10.7499 14.9149 10.7499 13.6399C11.0785 13.7117 11.4137 13.7486 11.7499 13.7499H12.7499C13.0862 13.7486 13.4214 13.7118 13.7499 13.6399C13.7499 14.9149 13.7699 15.8949 14.3274 16.9999ZM12.7499 13.2499H11.75C9.77996 13.2499 8.16249 11.9249 8.01498 10.2499H16.4849C16.3374 11.9249 14.7199 13.2499 12.7499 13.2499ZM16.7499 9.74993H8.24997V9.24993H16.7499C16.888 9.24993 16.9999 9.36184 16.9999 9.49991C16.9999 9.63799 16.888 9.74993 16.7499 9.74993Z" fill="#D79800"/>
</svg>
