<svg width="48" height="48" viewBox="0 0 48 48" fill="none" xmlns="http://www.w3.org/2000/svg">
<path d="M26.8752 12.0378C25.9741 12.7552 24.8478 13.1139 23.7215 13.1139C22.5951 13.1139 21.4688 12.7104 20.5677 12.0378C18.3601 12.7552 16.7832 14.8176 16.7832 17.2387V22.3499C16.7832 23.4259 17.6392 24.2778 18.7205 24.2778H19.2161V33.3345C19.2161 34.3657 20.0721 35.2175 21.1083 35.2175H21.4237C22.46 35.2175 23.316 34.3657 23.316 33.3345V27.6404C23.316 27.3714 23.5412 27.1921 23.7665 27.1921C24.0368 27.1921 24.217 27.4162 24.217 27.6404V33.3345C24.217 34.3657 25.0731 35.2175 26.1093 35.2175H26.4247C27.4609 35.2175 28.3169 34.3657 28.3169 33.3345V24.3226H28.8125C29.8938 24.3226 30.7498 23.4708 30.7498 22.3947V17.2387C30.6597 14.8176 29.0378 12.7552 26.8752 12.0378Z" fill="#00A79E"/>
<path d="M20.9731 11.2308C21.2434 11.455 21.5137 11.6343 21.8291 11.8137C22.4148 12.0827 23.0456 12.262 23.7214 12.262C24.3972 12.262 25.0279 12.0827 25.5686 11.8137C25.8839 11.6792 26.1993 11.455 26.4246 11.2308C27.3707 10.4686 27.9564 9.3029 27.9564 8.00269C27.9564 5.62643 26.0642 3.74336 23.7214 3.74336C21.3786 3.74336 19.4413 5.62643 19.4413 8.00269C19.4413 9.3029 20.027 10.4686 20.9731 11.2308Z" fill="#FDB913"/>
<path d="M41.1121 23.1121C40.3461 23.7398 39.355 24.0985 38.3187 24.0985C37.2825 24.0985 36.3364 23.7398 35.5254 23.1121C33.8134 23.7398 32.5519 25.3987 32.5519 27.3714V31.6308C32.5519 32.5275 33.2727 33.2 34.1288 33.2H34.5342V40.7323C34.5342 41.5842 35.21 42.2567 36.0661 42.2567H36.3364C37.1924 42.2567 37.8682 41.5842 37.8682 40.7323V35.9798C37.8682 35.7556 38.0484 35.5763 38.2737 35.5763C38.499 35.5763 38.6792 35.7556 38.6792 35.9798V40.7323C38.6792 41.5842 39.355 42.2567 40.211 42.2567H40.4813C41.3373 42.2567 42.0131 41.5842 42.0131 40.7323V33.2H42.4186C43.3197 33.2 43.9955 32.4826 43.9955 31.6308V27.3714C44.0856 25.3987 42.8241 23.7398 41.1121 23.1121Z" fill="#00A79E"/>
<path d="M36.021 22.3499C36.2463 22.5292 36.4716 22.7086 36.7419 22.8431C37.1924 23.0673 37.7331 23.2018 38.2737 23.2018C38.8144 23.2018 39.355 23.0673 39.8055 22.8431C40.0758 22.7086 40.3011 22.5741 40.5264 22.3499C41.2923 21.7222 41.7879 20.7358 41.7879 19.6598C41.7879 19.4356 41.7428 19.1666 41.6978 18.9424C41.6527 18.7183 41.5626 18.4941 41.4725 18.2699C41.3824 18.0457 41.2923 17.8664 41.1571 17.6871C41.022 17.5077 40.8868 17.3284 40.7066 17.149C40.4813 16.9249 40.211 16.7007 39.8956 16.5214C39.7154 16.4317 39.4902 16.342 39.2649 16.2523C38.9495 16.1627 38.5891 16.073 38.2287 16.073C37.8682 16.073 37.5078 16.1178 37.1924 16.2523C36.9672 16.342 36.7419 16.4317 36.5617 16.5214C36.3364 16.7455 36.0661 16.9249 35.7958 17.1939C35.6155 17.3732 35.4804 17.5077 35.3452 17.7319C35.2101 17.9112 35.12 18.1354 35.0299 18.3148C34.9397 18.5389 34.8496 18.7631 34.8046 18.9873C34.7595 19.2115 34.7145 19.4356 34.7145 19.7046C34.7595 20.7358 35.2551 21.7222 36.021 22.3499Z" fill="#FDB913"/>
<path d="M12.458 23.1121C11.6921 23.7398 10.7009 24.0985 9.66468 24.0985C8.62845 24.0985 7.68233 23.7398 6.87136 23.1121C5.11427 23.7398 3.89783 25.3987 3.89783 27.3714V31.6308C3.89783 32.5275 4.61868 33.2 5.4747 33.2H5.88018V40.7323C5.88018 41.5842 6.55599 42.2567 7.412 42.2567H7.68233C8.53834 42.2567 9.21415 41.5842 9.21415 40.7323V35.9798C9.21415 35.7556 9.39436 35.5763 9.61963 35.5763C9.8449 35.5763 10.0251 35.7556 10.0251 35.9798V40.7323C10.0251 41.5842 10.7009 42.2567 11.5569 42.2567H11.8273C12.6833 42.2567 13.3591 41.5842 13.3591 40.7323V33.2H13.8096C14.7107 33.2 15.3865 32.4826 15.3865 31.6308V27.3714C15.3865 25.3987 14.17 23.7398 12.458 23.1121Z" fill="#00A79E"/>
<path d="M7.36686 22.3499C7.59212 22.5292 7.81739 22.7086 8.08771 22.8431C8.53825 23.0673 9.07889 23.2018 9.61953 23.2018C10.0701 23.2018 10.4756 23.1121 10.836 22.9776C10.9261 22.9328 11.0612 22.8879 11.1514 22.8431C11.4217 22.7086 11.6469 22.5741 11.8722 22.3499C11.9623 22.2602 12.0524 22.1706 12.1425 22.0809C12.2326 21.9912 12.3227 21.9016 12.3678 21.8119C12.8183 21.229 13.0887 20.4668 13.0887 19.6598C13.0887 19.4356 13.0436 19.1666 12.9986 18.9424C12.9535 18.7183 12.8634 18.4941 12.7733 18.2699C12.6832 18.0457 12.5931 17.8664 12.4579 17.6871C12.3227 17.5077 12.1876 17.3284 12.0074 17.149C11.7821 16.9249 11.5118 16.7007 11.1964 16.5214C11.0162 16.4317 10.7909 16.342 10.5657 16.2523C10.2503 16.1627 9.88985 16.073 9.52943 16.073C9.169 16.073 8.80857 16.1178 8.49319 16.2523C8.26793 16.342 8.04266 16.4317 7.86244 16.5214C7.68223 16.7455 7.41191 16.9249 7.14159 17.1939C6.96137 17.3732 6.82621 17.5077 6.69105 17.7319C6.60095 17.9112 6.46578 18.0906 6.37568 18.3148C6.28557 18.5389 6.19546 18.7631 6.15041 18.9873C6.10536 19.2115 6.0603 19.4356 6.0603 19.7046C6.10536 20.7358 6.60095 21.7222 7.36686 22.3499Z" fill="#FDB913"/>
</svg>
