<svg width="48" height="48" viewBox="0 0 48 48" fill="none" xmlns="http://www.w3.org/2000/svg">
<path d="M44.5555 23.1846C42.6021 19.5654 39.6974 16.5192 36.1493 14.3769C32.5037 12.1654 28.3006 11 24 11C19.6994 11 15.4963 12.1654 11.8429 14.3731C8.29874 16.5192 5.39009 19.5654 3.43669 23.1808L3 24L3.44059 24.8154C5.39398 28.4346 8.29874 31.4808 11.8468 33.6231C15.4963 35.8308 19.6994 37 24 37C28.3006 37 32.5037 35.8346 36.1532 33.6231C39.6974 31.4769 42.606 28.4308 44.5594 24.8154L45 24L44.5555 23.1846ZM31.8214 31.7154C29.7315 33.7769 26.9554 34.9115 24 34.9115C21.0446 34.9115 18.2685 33.7769 16.1786 31.7154C14.0887 29.6538 12.9385 26.9154 12.9385 24C12.9385 21.0846 14.0887 18.3462 16.1786 16.2846C18.2685 14.2231 21.0446 13.0885 24 13.0885C26.9554 13.0885 29.7315 14.2231 31.8214 16.2846C33.9113 18.3462 35.0615 21.0846 35.0615 24C35.0576 26.9154 33.9074 29.6538 31.8214 31.7154Z" fill="#FDB913"/>
<path d="M32.1842 24.0627C32.1842 28.577 28.5121 32.2491 23.9978 32.2491C19.4834 32.2491 15.8158 28.577 15.8158 24.0627C15.8158 23.4343 15.8871 22.8193 16.0208 22.2311C16.8809 23.0823 18.0663 23.6126 19.372 23.6126C22.0013 23.6126 24.1314 21.4824 24.1314 18.8531C24.1314 17.7479 23.7571 16.7363 23.1288 15.9297C23.414 15.8985 23.7081 15.8851 23.9978 15.8851C28.5121 15.8762 32.1842 19.5483 32.1842 24.0627Z" fill="#00A79E"/>
</svg>
