<svg width="20" height="20" viewBox="0 0 20 20" fill="none" xmlns="http://www.w3.org/2000/svg">
<ellipse cx="9.64917" cy="6.06519" rx="3.98169" ry="3.98169" stroke="#9D9BC9" stroke-width="1.5" stroke-linecap="round" stroke-linejoin="round"/>
<path fill-rule="evenodd" clip-rule="evenodd" d="M3.33351 15.5846C3.33244 15.3047 3.39504 15.0282 3.51658 14.7761C3.89796 14.0133 4.97348 13.609 5.86593 13.426C6.50956 13.2886 7.16208 13.1969 7.81864 13.1514C9.0342 13.0446 10.2568 13.0446 11.4723 13.1514C12.1288 13.1974 12.7813 13.2891 13.425 13.426C14.3175 13.609 15.393 13.9752 15.7744 14.7761C16.0188 15.2901 16.0188 15.8868 15.7744 16.4008C15.393 17.2017 14.3175 17.5678 13.425 17.7433C12.7822 17.8863 12.1294 17.9807 11.4723 18.0255C10.483 18.1094 9.48899 18.1247 8.49751 18.0713C8.26867 18.0713 8.04747 18.0713 7.81864 18.0255C7.16402 17.9812 6.51376 17.8869 5.87356 17.7433C4.97348 17.5678 3.90559 17.2017 3.51658 16.4008C3.39566 16.1457 3.33312 15.8669 3.33351 15.5846Z" stroke="#9D9BC9" stroke-width="1.5" stroke-linecap="round" stroke-linejoin="round"/>
</svg>
