<svg width="20" height="20" viewBox="0 0 20 20" fill="none" xmlns="http://www.w3.org/2000/svg">
<path d="M4.86544 2.5C3.56114 2.5 2.5 3.89481 2.5 5.60924C2.5 6.9605 3.15823 8.14569 4.12025 8.56164L3.90506 16.5133C3.90177 16.6415 3.92418 16.769 3.97096 16.8884C4.01774 17.0078 4.08795 17.1166 4.17745 17.2084C4.26695 17.3003 4.37392 17.3732 4.49207 17.4231C4.61022 17.4729 4.73715 17.4986 4.86538 17.4986C4.99361 17.4986 5.12054 17.4729 5.23868 17.4231C5.35683 17.3732 5.46381 17.3003 5.55331 17.2084C5.64281 17.1166 5.71302 17.0078 5.7598 16.8884C5.80658 16.769 5.82899 16.6415 5.8257 16.5133L5.61051 8.56177C6.57253 8.14582 7.23076 6.96063 7.23076 5.60937C7.23101 3.89481 6.16987 2.5 4.86544 2.5ZM5.3143 8.20101C5.26922 8.21615 5.23021 8.2454 5.20304 8.28442C5.17587 8.32345 5.16197 8.37019 5.16342 8.41772L5.38304 16.5258C5.38491 16.595 5.37291 16.6638 5.34774 16.7282C5.32258 16.7926 5.28476 16.8514 5.23651 16.9009C5.18827 16.9505 5.13059 16.9899 5.06686 17.0168C5.00314 17.0437 4.93467 17.0576 4.86551 17.0576C4.79634 17.0576 4.72787 17.0437 4.66415 17.0168C4.60043 16.9899 4.54274 16.9505 4.4945 16.9009C4.44625 16.8514 4.40843 16.7926 4.38327 16.7282C4.3581 16.6638 4.3461 16.595 4.34797 16.5258L4.56759 8.41772C4.5689 8.37029 4.55494 8.3237 4.52778 8.2848C4.50062 8.2459 4.46168 8.21675 4.41671 8.20164C3.54899 7.91012 2.94304 6.8443 2.94304 5.60924C2.94304 4.13924 3.80544 2.94304 4.86544 2.94304C5.92544 2.94304 6.78797 4.13924 6.78797 5.60924C6.78797 6.8443 6.18202 7.91012 5.3143 8.20101Z" fill="#16154E"/>
<path d="M10.548 2.5082C10.4073 2.48315 10.2622 2.50979 10.1395 2.58321C10.0168 2.65664 9.92476 2.77192 9.88032 2.90782C9.24893 4.75795 8.47906 7.80364 8.39653 11.8072C8.39571 11.8477 8.406 11.8876 8.42628 11.9227C8.44657 11.9577 8.47607 11.9866 8.51159 12.006L9.39045 12.4878L9.13362 16.4787C9.12526 16.6071 9.14281 16.7359 9.18523 16.8574C9.22765 16.9788 9.29407 17.0906 9.38054 17.1859C9.46701 17.2811 9.57175 17.3581 9.68855 17.4121C9.80535 17.4661 9.93182 17.496 10.0604 17.5001C10.189 17.5043 10.3172 17.4825 10.4372 17.4361C10.5572 17.3897 10.6667 17.3196 10.7591 17.2301C10.8515 17.1405 10.9249 17.0333 10.975 16.9148C11.0252 16.7963 11.0509 16.6689 11.0508 16.5402V3.10175C11.0527 2.9588 11.0029 2.81998 10.9105 2.71089C10.8181 2.60181 10.6894 2.52982 10.548 2.5082ZM10.6079 16.5402C10.6077 16.6772 10.5533 16.8085 10.4564 16.9053C10.3596 17.0022 10.2283 17.0566 10.0913 17.0568C10.0207 17.0568 9.95083 17.0423 9.88603 17.0142C9.82123 16.9861 9.76287 16.9451 9.71456 16.8936C9.66625 16.842 9.62903 16.7812 9.60517 16.7147C9.58132 16.6482 9.57136 16.5775 9.57589 16.5071L9.84171 12.3757C9.84444 12.3336 9.83511 12.2917 9.81481 12.2547C9.79452 12.2178 9.76411 12.1874 9.72716 12.1672L8.84273 11.6822C8.93805 7.80174 9.68564 4.85061 10.2997 3.05099C10.3116 3.01537 10.3359 2.98518 10.3681 2.9658C10.4002 2.94642 10.4383 2.93912 10.4753 2.94521C10.5124 2.9513 10.5461 2.97038 10.5704 2.99903C10.5947 3.02769 10.608 3.06405 10.6079 3.10162V16.5402Z" fill="#16154E"/>
<path d="M17.2787 2.5C17.2496 2.49998 17.2208 2.5057 17.1939 2.51683C17.167 2.52795 17.1426 2.54427 17.122 2.56484C17.1014 2.58542 17.0851 2.60984 17.074 2.63673C17.0629 2.66361 17.0571 2.69242 17.0572 2.72152V6.35316C17.0578 6.78195 16.9147 7.19859 16.6509 7.53659C16.387 7.87459 16.0176 8.11447 15.6015 8.21797C15.5525 8.23018 15.5092 8.25875 15.4787 8.29895C15.4482 8.33914 15.4323 8.38855 15.4337 8.43898L15.6527 16.5251C15.6549 16.5944 15.6431 16.6635 15.6181 16.7282C15.593 16.793 15.5552 16.852 15.5069 16.9018C15.4586 16.9517 15.4008 16.9913 15.3369 17.0184C15.273 17.0454 15.2043 17.0594 15.1349 17.0594C15.0655 17.0594 14.9968 17.0454 14.9329 17.0184C14.869 16.9913 14.8112 16.9517 14.7628 16.9018C14.7145 16.852 14.6768 16.793 14.6517 16.7282C14.6267 16.6635 14.6149 16.5944 14.617 16.5251L14.836 8.43898C14.8374 8.38855 14.8216 8.33914 14.7911 8.29895C14.7606 8.25875 14.7173 8.23018 14.6683 8.21797C14.252 8.11465 13.8823 7.87484 13.6183 7.53682C13.3543 7.19881 13.2111 6.78208 13.2116 6.35316V2.72152C13.2116 2.66277 13.1883 2.60642 13.1467 2.56488C13.1052 2.52334 13.0488 2.5 12.9901 2.5C12.9313 2.5 12.875 2.52334 12.8334 2.56488C12.7919 2.60642 12.7686 2.66277 12.7686 2.72152V6.35316C12.7679 6.85015 12.9241 7.33466 13.2149 7.7377C13.5057 8.14073 13.9162 8.44174 14.388 8.59785L14.1737 16.5129C14.1701 16.6413 14.1923 16.7692 14.239 16.8889C14.2856 17.0086 14.3558 17.1177 14.4454 17.2098C14.5349 17.302 14.642 17.3752 14.7604 17.4252C14.8787 17.4752 15.0059 17.5009 15.1344 17.5009C15.2629 17.5009 15.39 17.4752 15.5084 17.4252C15.6267 17.3752 15.7338 17.302 15.8234 17.2098C15.913 17.1177 15.9831 17.0086 16.0298 16.8889C16.0764 16.7692 16.0986 16.6413 16.095 16.5129L15.8807 8.59785C16.3525 8.44174 16.7631 8.14073 17.0539 7.7377C17.3446 7.33466 17.5008 6.85015 17.5002 6.35316V2.72152C17.5002 2.69242 17.4945 2.66361 17.4834 2.63673C17.4722 2.60984 17.4559 2.58542 17.4354 2.56484C17.4148 2.54427 17.3904 2.52795 17.3635 2.51683C17.3366 2.5057 17.3078 2.49998 17.2787 2.5Z" fill="#16154E"/>
<path d="M14.0623 6.44519C14.0914 6.44521 14.1202 6.43949 14.1471 6.42836C14.174 6.41723 14.1984 6.40092 14.219 6.38034C14.2396 6.35977 14.2559 6.33534 14.267 6.30846C14.2782 6.28158 14.2839 6.25276 14.2839 6.22367V2.72152C14.2839 2.66277 14.2605 2.60642 14.219 2.56488C14.1774 2.52334 14.1211 2.5 14.0623 2.5C14.0036 2.5 13.9472 2.52334 13.9057 2.56488C13.8642 2.60642 13.8408 2.66277 13.8408 2.72152V6.22367C13.8408 6.25276 13.8465 6.28158 13.8576 6.30846C13.8688 6.33534 13.8851 6.35977 13.9057 6.38034C13.9262 6.40092 13.9507 6.41723 13.9775 6.42836C14.0044 6.43949 14.0332 6.44521 14.0623 6.44519Z" fill="#16154E"/>
<path d="M15.1336 6.44519C15.1924 6.44519 15.2487 6.42185 15.2903 6.38031C15.3318 6.33876 15.3551 6.28242 15.3551 6.22367V2.72152C15.3551 2.66277 15.3318 2.60642 15.2903 2.56488C15.2487 2.52334 15.1924 2.5 15.1336 2.5C15.0749 2.5 15.0185 2.52334 14.977 2.56488C14.9354 2.60642 14.9121 2.66277 14.9121 2.72152V6.22367C14.9121 6.25276 14.9178 6.28158 14.9289 6.30846C14.9401 6.33534 14.9564 6.35977 14.977 6.38034C14.9975 6.40092 15.022 6.41723 15.0488 6.42836C15.0757 6.43949 15.1045 6.44521 15.1336 6.44519Z" fill="#16154E"/>
<path d="M16.2059 6.44519C16.235 6.44521 16.2638 6.43949 16.2907 6.42836C16.3176 6.41723 16.342 6.40092 16.3626 6.38034C16.3831 6.35977 16.3995 6.33534 16.4106 6.30846C16.4217 6.28158 16.4274 6.25276 16.4274 6.22367V2.72152C16.4274 2.66277 16.4041 2.60642 16.3625 2.56488C16.321 2.52334 16.2646 2.5 16.2059 2.5C16.1471 2.5 16.0908 2.52334 16.0493 2.56488C16.0077 2.60642 15.9844 2.66277 15.9844 2.72152V6.22367C15.9844 6.28242 16.0077 6.33876 16.0493 6.38031C16.0908 6.42185 16.1471 6.44519 16.2059 6.44519Z" fill="#16154E"/>
</svg>
