<svg width="20" height="20" viewBox="0 0 20 20" fill="none" xmlns="http://www.w3.org/2000/svg">
<path d="M4.18333 3.49092L3.28338 2.96408C3.16701 2.89595 3.01747 2.93507 2.94934 3.05144C2.88121 3.16782 2.92033 3.31736 3.0367 3.38549L3.93662 3.9123C4.05098 3.97936 4.20182 3.94251 4.27067 3.82493C4.3388 3.70859 4.29967 3.55902 4.18333 3.49092ZM4.45052 2.88774C4.54091 2.98826 4.69534 2.99588 4.7953 2.906C4.89553 2.81584 4.90373 2.66148 4.81356 2.56122L4.08161 1.74736C3.99147 1.64714 3.83711 1.63897 3.73682 1.7291C3.6366 1.81927 3.62839 1.97363 3.71856 2.07389L4.45052 2.88774ZM3.54145 4.44055L2.47347 4.20071C2.3417 4.17105 2.21129 4.25387 2.18177 4.38541C2.15221 4.51698 2.23493 4.64758 2.36647 4.6771L3.43445 4.91694C3.45249 4.92101 3.47045 4.92296 3.48816 4.92296C3.59988 4.92296 3.70063 4.84582 3.72615 4.73228C3.7557 4.60067 3.67299 4.47011 3.54145 4.44055ZM17.556 8.62554C17.141 7.6443 16.3105 6.93217 15.2775 6.67173L8.9579 5.07849L7.17889 3.07228C6.96444 2.83035 6.59954 2.8007 6.34817 3.0047C5.8681 3.39411 5.46118 3.85709 5.13872 4.38075C4.76106 4.99415 4.51158 5.66859 4.3972 6.38531C4.34632 6.70412 4.55458 7.0046 4.87131 7.06948L7.49809 7.607L8.37565 8.51099C8.46966 8.6078 8.62418 8.60998 8.72086 8.51613C8.81763 8.42219 8.81991 8.26763 8.726 8.17092L7.92442 7.34522L8.94436 5.57865L15.1581 7.14519C16.0413 7.36788 16.7514 7.97679 17.1063 8.81574C17.4611 9.65469 17.4034 10.5883 16.9479 11.3772C16.4925 12.166 15.7128 12.6829 14.8088 12.7951C13.9049 12.9074 13.0225 12.5968 12.388 11.9432L9.42221 8.8881C9.3283 8.79129 9.17378 8.78904 9.07703 8.88296C8.98026 8.9769 8.97798 9.13145 9.07189 9.22817L11.0466 11.2623C10.6518 11.33 10.3001 11.5696 10.0967 11.9222C9.91521 12.2367 9.86693 12.603 9.96087 12.9537C10.0683 13.3546 10.3631 13.6849 10.7394 13.8628L9.63871 15.7691C9.41043 16.1644 9.34978 16.6251 9.46798 17.066C9.58614 17.5069 9.86892 17.8754 10.2642 18.1035C10.6606 18.3322 11.1227 18.3918 11.5609 18.2744C12.0018 18.1562 12.3703 17.8735 12.5987 17.478L14.535 14.1243C14.6024 14.0075 14.5624 13.8582 14.4456 13.7908C14.3289 13.7234 14.1795 13.7633 14.1121 13.8801L12.1758 17.234C12.0127 17.5164 11.7495 17.7184 11.4345 17.8028C11.1196 17.8872 10.7907 17.8438 10.5083 17.6807C10.226 17.5177 10.024 17.2546 9.93962 16.9397C9.85521 16.6247 9.89851 16.2957 10.0616 16.0133L12.151 12.3946C12.7794 12.9852 13.5917 13.306 14.4447 13.306C14.5852 13.306 14.7269 13.2972 14.869 13.2796C15.9262 13.1484 16.8381 12.5439 17.3708 11.6213C17.9035 10.6987 17.971 9.60674 17.556 8.62554ZM7.49737 7.10841L4.96922 6.59107C4.90926 6.57879 4.86978 6.52219 4.87935 6.46219C4.98355 5.80928 5.21072 5.19509 5.5545 4.63674C5.84802 4.16002 6.21852 3.73848 6.65579 3.38383C6.6772 3.36645 6.70292 3.35792 6.72844 3.35792C6.75992 3.35792 6.79114 3.37087 6.81353 3.39616L8.52577 5.32709L7.49737 7.10841ZM10.9835 13.44L10.8384 13.3562C10.4225 13.1162 10.2795 12.5824 10.5196 12.1662C10.6747 11.8974 10.9641 11.7304 11.2749 11.7304C11.3664 11.7304 11.4562 11.745 11.5427 11.7733L11.7955 12.0337L10.9835 13.44ZM16.3524 11.0171C16.8608 10.1365 16.5352 9.02469 15.6873 8.53511C14.8241 8.03668 13.7004 8.34267 13.2054 9.20014C12.7044 10.0678 13.0028 11.1812 13.8704 11.6821C14.7272 12.1768 15.8462 11.8938 16.3524 11.0171ZM13.6283 9.44424C13.9906 8.81665 14.8115 8.59321 15.4432 8.95795C16.0662 9.31758 16.2912 10.1464 15.9296 10.7729C15.5633 11.4074 14.749 11.6255 14.1145 11.2593C13.4801 10.8929 13.262 10.0787 13.6283 9.44424ZM12.4088 15.4249C12.5978 15.3742 12.7557 15.2531 12.8535 15.0836C12.9513 14.9142 12.9773 14.7168 12.9267 14.5279C12.876 14.3389 12.7549 14.1809 12.5855 14.0832C12.416 13.9853 12.2186 13.9593 12.0297 14.01C11.8407 14.0606 11.6828 14.1818 11.585 14.3513C11.3831 14.701 11.5033 15.1498 11.853 15.3517C11.9659 15.4169 12.0911 15.4501 12.2181 15.4501C12.2817 15.4501 12.3457 15.4418 12.4088 15.4249ZM12.0972 14.9288C11.9806 14.8615 11.9405 14.7119 12.0078 14.5953C12.0404 14.5389 12.0931 14.4984 12.1561 14.4816C12.1771 14.4759 12.1984 14.4732 12.2196 14.4732C12.2619 14.4732 12.3037 14.4843 12.3413 14.506C12.3978 14.5386 12.4382 14.5912 12.4551 14.6542C12.4719 14.7172 12.4633 14.783 12.4307 14.8395V14.8395C12.398 14.8959 12.3454 14.9364 12.2824 14.9532C12.2195 14.9701 12.1536 14.9614 12.0972 14.9288ZM15.1951 10.9127C15.2625 10.7959 15.2225 10.6466 15.1058 10.5792L14.2079 10.0609C14.0911 9.99348 13.9418 10.0334 13.8745 10.1502C13.807 10.267 13.847 10.4163 13.9638 10.4837L14.8616 11.0021C14.9763 11.0683 15.127 11.0307 15.1951 10.9127ZM11.7638 16.543L10.8659 16.0247C10.7491 15.9573 10.5998 15.9972 10.5324 16.114C10.465 16.2308 10.505 16.3801 10.6218 16.4475L11.5196 16.9659C11.5581 16.9881 11.6001 16.9986 11.6415 16.9986C11.7259 16.9986 11.8079 16.9548 11.8531 16.8765C11.9205 16.7598 11.8805 16.6105 11.7638 16.543ZM14.4521 9.63796L15.3499 10.1563C15.4646 10.2227 15.6153 10.185 15.6834 10.067C15.7508 9.95022 15.7108 9.80091 15.5941 9.7335L14.6962 9.21511C14.5795 9.1477 14.4301 9.18767 14.3627 9.30447C14.2953 9.42123 14.3353 9.57054 14.4521 9.63796Z" fill="#16154E"/>
</svg>
